…
met_dt <- met_dt %>%
  mutate(euclidean_distance = sqrt((temp - median_temp)^2 + (wind.sp - median_wind_sp)^2))


closest_stations_by_state <- met_dt %>%
  group_by(STATE) %>%
  filter(euclidean_distance == min(euclidean_distance, na.rm = TRUE)) %>%
  slice(1) %>%
  ungroup()


print(closest_stations_by_state)
```

    ## # A tibble: 48 × 34
    ##    USAFID  WBAN  year month   day  hour   min   lat    lon  elev wind.dir
    ##     <int> <int> <int> <int> <int> <int> <int> <dbl>  <dbl> <int>    <int>
    ##  1 720307 63804  2023     6    15    13    35  34.9  -86.6   230      150
    ##  2 720175 53919  2023     6     4     2    53  33.6  -91.8    82      310
    ##  3 722720 93026  2023     6    28    10    56  31.5 -110.   1250       90
    ##  4 690150 93121  2023     6    10    10    56  34.3 -116.    625      300
    ##  5 720538   164  2023     6    17    19    35  40.2 -105.   1541      210
    ##  6 725027 54788  2023     6     6    18    53  41.5  -72.8    32      340
    ##  7 724093 13764  2023     6     1    23    54  38.7  -75.4    16       90
    ##  8 720383 53847  2023     6     1     5    56  30.7  -87.0    54       30
    ##  9 720263 63834  2023     6     9    14    15  34.1  -82.8   183       80
    ## 10 720293  4989  2023     6    10    23    15  42.5  -91.9   298       30
    ## # ℹ 38 more rows
    ## # ℹ 23 more variables: wind.dir.qc <chr>, wind.type.code <chr>, wind.sp <dbl>,
    ## #   wind.sp.qc <chr>, ceiling.ht <int>, ceiling.ht.qc <int>,
    ## #   ceiling.ht.method <chr>, sky.cond <chr>, vis.dist <int>, vis.dist.qc <chr>,
    ## #   vis.var <chr>, vis.var.qc <chr>, temp <dbl>, temp.qc <chr>,
    ## #   dew.point <dbl>, dew.point.qc <chr>, atm.press <dbl>, atm.press.qc <int>,
    ## #   CTRY <chr>, STATE <chr>, LAT <dbl>, LON <dbl>, euclidean_distance <dbl>
…
